[
    {
        "id" : 1,
        "longtitude":25.763107,
        "lattitude":-80.1911,
        "country":"US",
        "state":"FL",
        "city":"Miami",
        "zip":33131,
        "ethnicity":"Hispanic or Latino",
        "age":"Older",
        "education":"Not Well Educated",
        "householdIncome":"Higher Income",
        "healthInsurance":"Less Likely Covered",
        "povertyLevel":"At Average Risk",
        "crashDeath":"Below Average",
        "diabetes":"Not Likely Diabetic",
        "diabeticScreening":"Average",
        "excessiveDrinking": "Average Drinking Habits",
        "fastFood":"Average",
        "fineParticulateMatter":"Clean Air",
        "mammographyScreening":"Less Likely",
        "obesity":"Unlikely to be Obese",
        "physicalInactivity":"Phisically Active",
        "poorHealth":"Averagely Healthy",
        "prematureDeath":"Below Average Risk",
        "recreationalFacilities":"Average Access",
        "sexTransDis":"Higher than Normal STD",
        "smoking":"Likely Non-Smoker",
        "teenBirths":"Bellow Average",
        "crime":"High Probability of Violent Crime",
        "unemployment":"Likely Employed",
    	"mortgage": "Less Likely to Have a Mortgage",
        "election":"Voted for Democratic Candidate"
    },

    {
        "id" : 2,
        "longtitude":33.932907,
        "lattitude":-117.4908,
        "country":"US",
        "state":"CA",
        "city":"Riverside",
        "zip":92505,
        "ethnicity":"Hispanic or Latino",
        "age":"Average Age",
        "education":"Not Well Educated",
        "householdIncome":"Average Income",
        "healthInsurance":"Unlikely Covered",
        "povertyLevel":" At Average Risk",
        "crashDeath":"Below Average",
        "diabetes":"Not Likely Diabetic",
        "diabeticScreening":"Less Likely to Have Screened",
        "excessiveDrinking":"Average Drinking Habits",
        "fastFood":"Above Average Availability",
        "fineParticulateMatter":"Average Air Pollution",
        "mammographyScreening":"Average",
        "obesity":"Unlikely to be Obese",
        "physicalInactivity":"Phisically Active",
        "poorHealth":"Averagely Healthy",
        "prematureDeath":"Below Average Risk",
        "recreationalFacilities":"Average Access",
        "sexTransDis":"Average",
        "smoking":"Likely Non-Smoker",
        "teenBirths":"Average",
        "crime":"More Likely to be a Victim",
        "unemployment":"Unknown",
	    "mortgage": "Less Likely to Have a Mortgage",
	    "election":"Voted for Democratic Candidate"
    },
    {
        "id" : 3,
        "longtitude":40.7386,
        "lattitude":-111.8591,
        "country":"US",
        "state":"UT",
        "city":"Salt Lake City",
        "zip":84105,
        "ethnicity":"White",
        "age":"Average Age",
        "education":"Bellow Average",
        "householdIncome":"Higher Income",
        "healthInsurance":"Less Likely Covered",
        "povertyLevel":"Above Average Risk",
        "crashDeath":"Low Accident Death Rate",
        "diabetes":"Highly Unlikely Diabetic",
        "diabeticScreening":"Average",
        "excessiveDrinking":"Unlikely",
        "fastFood":"Above Average Availability",
        "fineParticulateMatter":"Clean Air",
        "mammographyScreening":"Less Likely",
        "obesity":"Unlikely to be Obese",
        "physicalInactivity":"Very Active Physically",
        "poorHealth":"Healthier than Average",
        "prematureDeath":"Below Average Risk",
        "recreationalFacilities":"Average Access",
        "sexTransDis":"Highest Instances of STD",
        "smoking":"Likely Non-Smoke",
        "teenBirths":"Average",
        "crime":"More Likely to be a Victim",
        "unemployment":"Likely Employed",
        "mortgage": "Less Likely to Have a Mortgage",
    	"election":"Voted for Democratic Candidate"
    },
    {
        "id" : 4,
        "longtitude":43.067703,
        "lattitude":-70.8008,
        "country":"US",
        "state":"NH",
        "city":"Portsmouth",
        "zip":3801,
        "ethnicity":"White",
        "age":"Older",
        "education":"Bellow Average",
        "householdIncome":"Average Income",
        "healthInsurance":"Likely Covered",
        "povertyLevel":"Low Risk of Poverty",
        "crashDeath":"Average Rate",
        "diabetes":"Not Likely Diabetic",
        "diabeticScreening":"More Likely to Have Screened",
        "excessiveDrinking":"Likely to Abuse Alcohol",
        "fastFood":"Above Average Availability",
        "fineParticulateMatter":"Clean Air",
        "mammographyScreening":"Very Unlikely to Have Had Mammography Screening",
        "obesity":"Unlikely to be Obese",
        "physicalInactivity":"Very Active Physically",
        "poorHealth":"Healthier than Average",
        "prematureDeath":"Below Average Risk",
        "recreationalFacilities":"Good Access to Recreational Facilities",
        "sexTransDis":"Bellow Average",
        "smoking":"Likely Non-Smoker",
        "teenBirths":"Low Teen Birth Rates",
        "crime":"Less Likely to be a Victim",
        "unemployment":"Average",
    	"mortgage": "Less Likely to Have a Mortgage",
    	"election":"Voted for Democratic Candidate"
    },
    {
        "id" : 5,
        "longtitude":41.209396,
        "lattitude":-73.4409,
        "country":"US",
        "state":"CT",
        "city":"Wilton",
        "zip":6897,
        "ethnicity":"White",
        "age":"Senior",
        "education":"Average",
        "householdIncome":"Higher Income",
        "healthInsurance":"Almost Certainly Covered",
        "povertyLevel":"Below Average Risk",
        "crashDeath":"Low Accident Death Rate",
        "diabetes":"Highly Unlikely Diabetic",
        "diabeticScreening":"Less Likely to Have Screened",
        "excessiveDrinking":"Likely to Abuse Alcohol",
        "fastFood":"Below Average Availability",
        "fineParticulateMatter":"Average Air Pollution",
        "mammographyScreening":"More Likely",
        "obesity": "Highly Unlikely Obese",
        "physicalInactivity":"Phisically Active",
        "poorHealth":"Healthier than Average",
        "prematureDeath":"Low Risk of Premature Death",
        "recreationalFacilities":"Better Access",
        "sexTransDis":"Average",
        "smoking":"Likely Non-Smoker",
        "teenBirths":"Low Teen Birth Rates",
        "crime":"More Likely to be a Victim",
        "unemployment":"Unknown",
    	"mortgage": "Less Likely to Have a Mortgage",
    	"election":"Voted for Democratic Candidate"
    },
    {
      "id" : 6,
        "longtitude":47.307297,
        "lattitude":-122.2284,
        "country":"US",
        "state":"WA",
        "city":"Auburn",
        "zip":98001,
        "ethnicity":"White",
        "age":"Younger",
        "education":"Bellow Average",
        "householdIncome":"Higher Income",
        "healthInsurance":"Likely Covered",
        "povertyLevel":"Above Average Risk",
        "crashDeath":"Low Accident Death Rate",
        "diabetes":"Highly Unlikely Diabetic",
        "diabeticScreening":"More Likely to Have Screened",
        "excessiveDrinking":"Likely to Abuse Alcohol",
        "fastFood":"Average",
        "fineParticulateMatter":"Average Air Pollution",
        "mammographyScreening":"Average",
        "obesity":"Highly Unlikely Obese",
        "physicalInactivity":"Very Active Physically",
        "poorHealth":"Healthier than Average",
        "prematureDeath":"Low Risk of Premature Death",
        "recreationalFacilities":"Limited Access to Recreational Facilities",
        "sexTransDis":"Average",
        "smoking":"Likely Non-Smoker",
        "teenBirths":"Above Average",
        "crime":"Average",
        "unemployment":"More Likely Unemployed",
    		"mortgage": "Less Likely to Have a Mortgage",
    		"election":"Voted for Democratic Candidate"
    },

	    {
        "id" : 7,
        "longtitude":48.307297,
        "lattitude":-112.2284,
        "country":"US",
        "state":"WA",
        "city":"Valier",
        "zip":98001,
        "ethnicity":"African American",
        "age":"Younger",
        "education":"Bellow Average",
        "householdIncome":"Average Income",
        "healthInsurance":"Likely Covered",
        "povertyLevel":"Above Average Risk",
        "crashDeath":"Above Average",
        "diabetes":"Highly Unlikely Diabetic",
        "diabeticScreening":"More Likely to Have Screened",
        "excessiveDrinking":"Likely to Abuse Alcohol",
        "fastFood":"Average",
        "fineParticulateMatter":"Average Air Pollution",
        "mammographyScreening":"More Likely",
        "obesity":"Highly Unlikely Obese",
        "physicalInactivity":"Very Active Physically",
        "poorHealth":"Healthier than Average",
        "prematureDeath":"Low Risk of Premature Death",
        "recreationalFacilities":"Better Access",
        "sexTransDis":"Average",
        "smoking":"Likely Smoker",
        "teenBirths":"Bellow Average",
        "crime":"More Likely to be a Victim",
        "unemployment":"More Likely Unemployed",
		"mortgage": "Less Likely to Have a Mortgage",
		"election":"Voted for Democratic Candidate"
    }	,

	{
        "id" : 8,
        "longtitude":49.307297,
        "lattitude":-108.2284,
        "country":"US",
        "state":"WA",
        "city":"Eastened",
        "zip":98001,
        "ethnicity":"African American",
        "age":"Older",
        "education":"Bellow Average",
        "householdIncome":"Below Average Income",
        "healthInsurance":"Likely Covered",
        "povertyLevel":"Above Average Risk",
        "crashDeath":"Low Accident Death Rate",
        "diabetes":"Highly Unlikely Diabetic",
        "diabeticScreening":"More Likely to Have Screened",
        "excessiveDrinking":"Likely to Abuse Alcohol",
        "fastFood":"Average",
        "fineParticulateMatter":"Average Air Pollution",
        "mammographyScreening":"Average",
        "obesity":"Very Likely Obese",
        "physicalInactivity":"Very Active Physically",
        "poorHealth":"Healthier than Average",
        "prematureDeath":"Low Risk of Premature Death",
        "recreationalFacilities":"Below Average Access",
        "sexTransDis":"Average",
        "smoking":"Likely Non-Smoker",
        "teenBirths":"Bellow Average",
        "crime":"More Likely to be a Victim",
        "unemployment":"More Likely Unemployed",
		"mortgage": "Less Likely to Have a Mortgage",
		"election": "Voted for Democratic Candidate"
    }	,
        {
        "id" : 9,
        "longtitude":42.307297,
        "lattitude":-96.2284,
        "country":"US",
        "state":"WA",
        "city":"Sioux City",
        "zip":98001,
        "ethnicity":"Asian",
        "age":"Younger",
        "education":"Average",
        "householdIncome":"Average Income",
        "healthInsurance":"Likely Covered",
        "povertyLevel":"Above Average Risk",
        "crashDeath":"Low Accident Death Rate",
        "diabetes":"Highly Unlikely Diabetic",
        "diabeticScreening":"More Likely to Have Screened",
        "excessiveDrinking":"Likely to Abuse Alcohol",
        "fastFood":"Average",
        "fineParticulateMatter":"Average Air Pollution",
        "mammographyScreening":"Average",
        "obesity":"Very Likely Obese",
        "physicalInactivity":"Very Active Physically",
        "poorHealth":"Healthier than Average",
        "prematureDeath":"Low Risk of Premature Death",
        "recreationalFacilities":"Better Access",
        "sexTransDis":"Average",
        "smoking":"Likely Non-Smoker",
        "teenBirths":"Bellow Average",
        "crime":"More Likely to be a Victim",
        "unemployment":"More Likely Unemployed",
		"mortgage": "Less Likely to Have a Mortgage",
		"election":"Voted for Democratic Candidate"
    },

    {
        "id" : 10,
        "longtitude":45.307297,
        "lattitude":-97.2284,
        "country":"US",
        "state":"WA",
        "city":"Wilmot",
        "zip":98001,
        "ethnicity":"Native American",
        "age":"Younger",
        "education":"Average",
        "householdIncome":"Average Income",
        "healthInsurance":"Likely Covered",
        "povertyLevel":"Above Average Risk",
        "crashDeath":"Low Accident Death Rate",
        "diabetes":"Highly Unlikely Diabetic",
        "diabeticScreening":"More Likely to Have Screened",
        "excessiveDrinking":"Likely to Abuse Alcohol",
        "fastFood":"Average",
        "fineParticulateMatter":"Average Air Pollution",
        "mammographyScreening":"Average",
        "obesity":"Very Likely Obese",
        "physicalInactivity":"Very Active Physically",
        "poorHealth":"Healthier than Average",
        "prematureDeath":"Low Risk of Premature Death",
        "recreationalFacilities":"Better Access",
        "sexTransDis":"Average",
        "smoking":"Likely Smoker",
        "teenBirths":"Bellow Average",
        "crime":"High Probability of Violent Crime",
        "unemployment":"More Likely Unemployed",
		"mortgage": "Less Likely to Have a Mortgage",
		"election":"Voted for Democratic Candidate"
    }
]
